^C:\USERS\JERAL\SOURCE\REPOS\BASPRG 2 WEEK 1\BASPRG 2 WEEK 1\DEBUG\SOURCE.OBJ
/OUT:"C:\USERS\JERAL\SOURCE\REPOS\BASPRG 2 WEEK 1\DEBUG\BASPRG 2 WEEK 1.EXE" /INCREMENTAL /NOLOGO KERNEL32.LIB USER32.LIB GDI32.LIB WINSPOOL.LIB COMDLG32.LIB ADVAPI32.LIB SHELL32.LIB OLE32.LIB OLEAUT32.LIB UUID.LIB ODBC32.LIB ODBCCP32.LIB /MANIFEST /MANIFESTUAC:"level='asInvoker' uiAccess='false'" /manifest:embed /DEBUG:FASTLINK /PDB:"C:\USERS\JERAL\SOURCE\REPOS\BASPRG 2 WEEK 1\DEBUG\BASPRG 2 WEEK 1.PDB" /SUBSYSTEM:CONSOLE /TLBID:1 /DYNAMICBASE /NXCOMPAT /IMPLIB:"C:\USERS\JERAL\SOURCE\REPOS\BASPRG 2 WEEK 1\DEBUG\BASPRG 2 WEEK 1.LIB" /MACHINE:X86 DEBUG\SOURCE.OBJ
^C:\USERS\JERAL\SOURCE\REPOS\BASPRG 2 WEEK 1\BASPRG 2 WEEK 1\DEBUG\SOURCE1.OBJ
/OUT:"C:\USERS\JERAL\SOURCE\REPOS\BASPRG 2 WEEK 1\DEBUG\BASPRG 2 WEEK 1.EXE" /INCREMENTAL /NOLOGO KERNEL32.LIB USER32.LIB GDI32.LIB WINSPOOL.LIB COMDLG32.LIB ADVAPI32.LIB SHELL32.LIB OLE32.LIB OLEAUT32.LIB UUID.LIB ODBC32.LIB ODBCCP32.LIB /MANIFEST /MANIFESTUAC:"level='asInvoker' uiAccess='false'" /manifest:embed /DEBUG:FASTLINK /PDB:"C:\USERS\JERAL\SOURCE\REPOS\BASPRG 2 WEEK 1\DEBUG\BASPRG 2 WEEK 1.PDB" /SUBSYSTEM:CONSOLE /TLBID:1 /DYNAMICBASE /NXCOMPAT /IMPLIB:"C:\USERS\JERAL\SOURCE\REPOS\BASPRG 2 WEEK 1\DEBUG\BASPRG 2 WEEK 1.LIB" /MACHINE:X86 DEBUG\SOURCE1.OBJ
